digraph models_diagram {
	graph[overlap=false, splines=true, bgcolor="none"]
	"ApplicationRecord" []
	"CadastroCachorro" [shape=Mrecord, label="{CadastroCachorro|id :integer\lnome :varchar\lraca :varchar\lsexo :varchar\lidade :integer\lcreated_at :datetime\lupdated_at :datetime\lisAgendado :boolean\l}"]
	"User" [shape=Mrecord, label="{User|id :integer\lemail :varchar\lencrypted_password :varchar\lreset_password_token :varchar\lreset_password_sent_at :datetime\lremember_created_at :datetime\lcreated_at :datetime\lupdated_at :datetime\lisAdmin :boolean\lname :varchar\ltelefone :varchar\l}"]
	"VisitasAgendada" [shape=Mrecord, label="{VisitasAgendada|id :integer\ldata :date\lhora :varchar\lcreated_at :datetime\lupdated_at :datetime\luser_id :integer\l}"]
	"User" -> "VisitasAgendada" [arrowtail=odot, arrowhead=crow, dir=both color="#80EA33"]
}
